{
  "name": "escript",
  "url" : "https://gitlab.com/haath/escript",
  "license": "MIT",
  "tags": [ "escript", "script", "game", "event", "scripting", "engine" ],
  "description": "Simple macro-based event scripting engine.",
  "version": "0.0.0",
  "classPath": "src",
  "releasenote": "Added waitFor event function, and support for repeating events",
  "contributors": [ "Haath" ],
  "dependencies": {
  }
}
